[
  {
    "id": 1,
    "user": "johny",
    "name": "books",
    "date": "2017-01-13",
    "price": 29.9
  },
  {
    "id": 2,
    "user": "jacky",
    "name": "games",
    "date": "2017-01-09",
    "price": 300
  },
  {
    "id": 3,
    "user": "nathaniel",
    "name": "computers",
    "date": "2017-11-03",
    "price": 11200
  },
  {
    "id": 4,
    "user": "stamat",
    "name": "computers",
    "date": "2017-11-04",
    "price": 11200
  }
]