[
  {
    "id": 1,
    "name": "books",
    "price": 29.9
  },
  {
    "id": 2,
    "name": "games",
    "price": 150
  },
  {
    "id": 3,
    "name": "computers",
    "price": 2800
  },
  {
    "id": 4,
    "name": "wines",
    "price": 100
  }
]